<svg width="11" height="18" viewBox="0 0 11 18" fill="none" xmlns="http://www.w3.org/2000/svg">
<path d="M9 9L9.70711 9.70711L10.4142 9L9.70711 8.29289L9 9ZM0.292893 1.70711L8.29289 9.70711L9.70711 8.29289L1.70711 0.292893L0.292893 1.70711ZM8.29289 8.29289L0.292893 16.2929L1.70711 17.7071L9.70711 9.70711L8.29289 8.29289Z" fill="#A9BDE6"/>
</svg>
