<svg width="125" height="36" viewBox="0 0 125 36" fill="none" xmlns="http://www.w3.org/2000/svg">
<path d="M118.368 36H109.732L110.811 31.2051H114.513L118.985 10.7315H115.284L116.363 5.93657H125L118.368 36ZM8.63665 36H0L6.5546 5.93657H15.1912L14.1116 10.7315H10.4102L5.9377 31.2051H9.63911L8.63665 36Z" fill="#3083FF"/>
<path d="M39.8673 4.79493H40.9469L40.6384 6.1649H37.0141L37.3226 4.79493H38.325L38.8648 2.43552L36.3201 4.79493L34.9321 2.43552L34.0838 6.1649H32.6187L34.0067 0H35.3948L36.8599 2.43552L39.4817 0H40.8698L39.8673 4.79493ZM24.5218 6.24101H18.9697L20.0493 1.5222H19.3552L19.6637 0.15222H25.9098L25.6014 1.5222H21.5144L21.2831 2.51163H24.4447L24.1363 3.88161H20.9746L20.7433 4.87104H24.8303L24.5218 6.24101ZM31.462 6.24101H25.3701L25.6785 4.87104H30.3053L30.5366 3.88161H25.9098L26.7581 0.0761088H32.85L32.5416 1.44609H27.9148L27.6835 2.43552H32.3102L31.462 6.24101ZM106.724 31.4334H87.9857L91.5329 15.2981L92.5354 10.5793L111.274 10.5032L110.271 15.222H96.4681L95.697 18.4947H106.416L105.336 23.2896H94.6175L93.9234 26.5624H107.727L106.724 31.4334ZM84.053 31.4334H79.1177L72.409 18.5708L69.6329 31.4334H64.6977L68.2448 15.2981L69.3244 10.5793L74.2596 10.5032L80.9685 23.3657L83.8217 10.5032H88.7569L84.053 31.4334ZM60.6106 31.4334H38.4021L42.9518 10.5032H65.1603L60.6106 31.4334ZM56.8321 26.6385L59.2998 15.2981H46.7303L44.2627 26.6385H56.8321ZM22.4398 26.6385H36.243L35.1634 31.4334H13.5718L14.7285 26.1057L32.6187 15.222H17.119L18.1986 10.4271H39.8673L38.4793 16.7442L22.4398 26.6385Z" fill="white"/>
</svg>
