<svg width="13" height="24" viewBox="0 0 13 24" fill="none" xmlns="http://www.w3.org/2000/svg">
<path d="M4.06278 24V12.7965H0V8.79518H4.06278L3.97504 5.96389C3.97504 2.2219 6.79595 0 10.1218 0C11.7147 0 12.5535 0.172055 12.9525 0.225272V4.01327L10.132 4.01247C8.32339 4.01247 7.98541 4.91276 7.98541 6.17876L8.12516 8.79518H13L12.1871 12.7965H8.12516V24H4.06278Z" fill="#A9BDE6"/>
</svg>
