<svg width="29" height="24" viewBox="0 0 29 24" fill="none" xmlns="http://www.w3.org/2000/svg">
<path fill-rule="evenodd" clip-rule="evenodd" d="M29 2.84409C27.9136 3.32959 26.7623 3.64753 25.584 3.78745C26.8259 3.0342 27.7557 1.84555 28.1994 0.444051C27.0302 1.14727 25.7529 1.64443 24.4213 1.91459C22.5795 -0.0852502 19.6497 -0.576556 17.276 0.716396C14.9024 2.00935 13.6759 4.76467 14.2849 7.43606C9.50213 7.19471 5.04497 4.89515 2.02319 1.10996C1.49368 2.03137 1.21585 3.0804 1.21855 4.14815C1.2142 6.17709 2.20803 8.07323 3.86531 9.19794C2.91972 9.17011 1.99498 8.90824 1.17089 8.43492V8.51816C1.17358 11.3995 3.16526 13.8812 5.93615 14.4558C5.42579 14.6005 4.89879 14.6751 4.36906 14.6778C3.99344 14.6762 3.61877 14.6391 3.24991 14.5668C4.02958 17.0343 6.26261 18.7236 8.8062 18.7703C6.69863 20.4543 4.09694 21.3679 1.41869 21.3646C0.944605 21.365 0.470902 21.3372 0 21.2814C5.20914 24.6774 11.8214 24.9078 17.2461 21.8824C22.6708 18.857 26.044 13.0576 26.0442 6.75628C26.0442 6.4927 26.0442 6.22911 26.0265 5.97939C27.1897 5.11926 28.1961 4.05812 29 2.84409Z" fill="#A9BDE6"/>
</svg>
